﻿  main.cpp
  Generating code
  0 of 892 functions ( 0.0%) were compiled, the rest were copied from previous compilation.
    0 functions were new in current compilation
    10 functions had inline decision re-evaluated but remain unchanged
  Finished generating code
  EM.vcxproj -> C:\Users\MuzDima\Documents\Visual Studio 2017\Projects\ExpectationMaximization\Release\EM.exe
