^C:\USERS\MUZDIMA\DOCUMENTS\VISUAL STUDIO 2017\PROJECTS\EXPECTATIONMAXIMIZATION\EM\CLASTERIZEREM.CPP|C:\USERS\MUZDIMA\DOCUMENTS\VISUAL STUDIO 2017\PROJECTS\EXPECTATIONMAXIMIZATION\EM\CLASTERIZERKMEANS.CPP|C:\USERS\MUZDIMA\DOCUMENTS\VISUAL STUDIO 2017\PROJECTS\EXPECTATIONMAXIMIZATION\EM\EXTRA.CPP|C:\USERS\MUZDIMA\DOCUMENTS\VISUAL STUDIO 2017\PROJECTS\EXPECTATIONMAXIMIZATION\EM\MAIN.CPP|C:\USERS\MUZDIMA\DOCUMENTS\VISUAL STUDIO 2017\PROJECTS\EXPECTATIONMAXIMIZATION\EM\MAPPERSIMPLE.CPP|C:\USERS\MUZDIMA\DOCUMENTS\VISUAL STUDIO 2017\PROJECTS\EXPECTATIONMAXIMIZATION\EM\READERMNIST.CPP
C:\USERS\MUZDIMA\DOCUMENTS\VISUAL STUDIO 2017\PROJECTS\EXPECTATIONMAXIMIZATION\EM\RELEASE\VC141.PDB
C:\USERS\MUZDIMA\DOCUMENTS\VISUAL STUDIO 2017\PROJECTS\EXPECTATIONMAXIMIZATION\EM\RELEASE\READERMNIST.OBJ
C:\USERS\MUZDIMA\DOCUMENTS\VISUAL STUDIO 2017\PROJECTS\EXPECTATIONMAXIMIZATION\EM\RELEASE\MAPPERSIMPLE.OBJ
C:\USERS\MUZDIMA\DOCUMENTS\VISUAL STUDIO 2017\PROJECTS\EXPECTATIONMAXIMIZATION\EM\RELEASE\MAIN.OBJ
C:\USERS\MUZDIMA\DOCUMENTS\VISUAL STUDIO 2017\PROJECTS\EXPECTATIONMAXIMIZATION\EM\RELEASE\EXTRA.OBJ
C:\USERS\MUZDIMA\DOCUMENTS\VISUAL STUDIO 2017\PROJECTS\EXPECTATIONMAXIMIZATION\EM\RELEASE\CLASTERIZERKMEANS.OBJ
C:\USERS\MUZDIMA\DOCUMENTS\VISUAL STUDIO 2017\PROJECTS\EXPECTATIONMAXIMIZATION\EM\RELEASE\CLASTERIZEREM.OBJ
^C:\USERS\MUZDIMA\DOCUMENTS\VISUAL STUDIO 2017\PROJECTS\EXPECTATIONMAXIMIZATION\EM\CLASTERIZEREM.CPP|C:\USERS\MUZDIMA\DOCUMENTS\VISUAL STUDIO 2017\PROJECTS\EXPECTATIONMAXIMIZATION\EM\CLASTERIZERKMEANS.CPP
C:\USERS\MUZDIMA\DOCUMENTS\VISUAL STUDIO 2017\PROJECTS\EXPECTATIONMAXIMIZATION\EM\RELEASE\VC141.PDB
C:\USERS\MUZDIMA\DOCUMENTS\VISUAL STUDIO 2017\PROJECTS\EXPECTATIONMAXIMIZATION\EM\RELEASE\CLASTERIZERKMEANS.OBJ
C:\USERS\MUZDIMA\DOCUMENTS\VISUAL STUDIO 2017\PROJECTS\EXPECTATIONMAXIMIZATION\EM\RELEASE\CLASTERIZEREM.OBJ
^C:\USERS\MUZDIMA\DOCUMENTS\VISUAL STUDIO 2017\PROJECTS\EXPECTATIONMAXIMIZATION\EM\CLASTERIZEREM.CPP|C:\USERS\MUZDIMA\DOCUMENTS\VISUAL STUDIO 2017\PROJECTS\EXPECTATIONMAXIMIZATION\EM\CLASTERIZERKMEANS.CPP|C:\USERS\MUZDIMA\DOCUMENTS\VISUAL STUDIO 2017\PROJECTS\EXPECTATIONMAXIMIZATION\EM\EXTRA.CPP|C:\USERS\MUZDIMA\DOCUMENTS\VISUAL STUDIO 2017\PROJECTS\EXPECTATIONMAXIMIZATION\EM\MAIN.CPP|C:\USERS\MUZDIMA\DOCUMENTS\VISUAL STUDIO 2017\PROJECTS\EXPECTATIONMAXIMIZATION\EM\MAPPERSIMPLE.CPP|C:\USERS\MUZDIMA\DOCUMENTS\VISUAL STUDIO 2017\PROJECTS\EXPECTATIONMAXIMIZATION\EM\READERBINARY.CPP|C:\USERS\MUZDIMA\DOCUMENTS\VISUAL STUDIO 2017\PROJECTS\EXPECTATIONMAXIMIZATION\EM\READERMNIST.CPP
C:\USERS\MUZDIMA\DOCUMENTS\VISUAL STUDIO 2017\PROJECTS\EXPECTATIONMAXIMIZATION\EM\RELEASE\VC141.PDB
C:\USERS\MUZDIMA\DOCUMENTS\VISUAL STUDIO 2017\PROJECTS\EXPECTATIONMAXIMIZATION\EM\RELEASE\READERBINARY.OBJ
C:\USERS\MUZDIMA\DOCUMENTS\VISUAL STUDIO 2017\PROJECTS\EXPECTATIONMAXIMIZATION\EM\RELEASE\READERMNIST.OBJ
C:\USERS\MUZDIMA\DOCUMENTS\VISUAL STUDIO 2017\PROJECTS\EXPECTATIONMAXIMIZATION\EM\RELEASE\MAPPERSIMPLE.OBJ
C:\USERS\MUZDIMA\DOCUMENTS\VISUAL STUDIO 2017\PROJECTS\EXPECTATIONMAXIMIZATION\EM\RELEASE\EXTRA.OBJ
C:\USERS\MUZDIMA\DOCUMENTS\VISUAL STUDIO 2017\PROJECTS\EXPECTATIONMAXIMIZATION\EM\RELEASE\CLASTERIZERKMEANS.OBJ
C:\USERS\MUZDIMA\DOCUMENTS\VISUAL STUDIO 2017\PROJECTS\EXPECTATIONMAXIMIZATION\EM\RELEASE\CLASTERIZEREM.OBJ
^C:\USERS\MUZDIMA\DOCUMENTS\VISUAL STUDIO 2017\PROJECTS\EXPECTATIONMAXIMIZATION\EM\CLASTERIZEREM.CPP
C:\USERS\MUZDIMA\DOCUMENTS\VISUAL STUDIO 2017\PROJECTS\EXPECTATIONMAXIMIZATION\EM\RELEASE\CLASTERIZEREM.OBJ
^C:\USERS\MUZDIMA\DOCUMENTS\VISUAL STUDIO 2017\PROJECTS\EXPECTATIONMAXIMIZATION\EM\EXTRA.CPP
C:\USERS\MUZDIMA\DOCUMENTS\VISUAL STUDIO 2017\PROJECTS\EXPECTATIONMAXIMIZATION\EM\RELEASE\EXTRA.OBJ
^C:\USERS\MUZDIMA\DOCUMENTS\VISUAL STUDIO 2017\PROJECTS\EXPECTATIONMAXIMIZATION\EM\READERBINARY.CPP
C:\USERS\MUZDIMA\DOCUMENTS\VISUAL STUDIO 2017\PROJECTS\EXPECTATIONMAXIMIZATION\EM\RELEASE\READERBINARY.OBJ
^C:\USERS\MUZDIMA\DOCUMENTS\VISUAL STUDIO 2017\PROJECTS\EXPECTATIONMAXIMIZATION\EM\CLASTERIZEREMGAUSSIAN.CPP|C:\USERS\MUZDIMA\DOCUMENTS\VISUAL STUDIO 2017\PROJECTS\EXPECTATIONMAXIMIZATION\EM\CLASTERIZERENBERNOULLI.CPP|C:\USERS\MUZDIMA\DOCUMENTS\VISUAL STUDIO 2017\PROJECTS\EXPECTATIONMAXIMIZATION\EM\MAIN.CPP
C:\USERS\MUZDIMA\DOCUMENTS\VISUAL STUDIO 2017\PROJECTS\EXPECTATIONMAXIMIZATION\EM\RELEASE\VC141.PDB
C:\USERS\MUZDIMA\DOCUMENTS\VISUAL STUDIO 2017\PROJECTS\EXPECTATIONMAXIMIZATION\EM\RELEASE\MAIN.OBJ
C:\USERS\MUZDIMA\DOCUMENTS\VISUAL STUDIO 2017\PROJECTS\EXPECTATIONMAXIMIZATION\EM\RELEASE\CLASTERIZEREMGAUSSIAN.OBJ
^C:\USERS\MUZDIMA\DOCUMENTS\VISUAL STUDIO 2017\PROJECTS\EXPECTATIONMAXIMIZATION\EM\CLASTERIZERENBERNOULLI.CPP|C:\USERS\MUZDIMA\DOCUMENTS\VISUAL STUDIO 2017\PROJECTS\EXPECTATIONMAXIMIZATION\EM\MAIN.CPP|C:\USERS\MUZDIMA\DOCUMENTS\VISUAL STUDIO 2017\PROJECTS\EXPECTATIONMAXIMIZATION\EM\READERDUMMY.CPP
C:\USERS\MUZDIMA\DOCUMENTS\VISUAL STUDIO 2017\PROJECTS\EXPECTATIONMAXIMIZATION\EM\RELEASE\VC141.PDB
C:\USERS\MUZDIMA\DOCUMENTS\VISUAL STUDIO 2017\PROJECTS\EXPECTATIONMAXIMIZATION\EM\RELEASE\READERDUMMY.OBJ
C:\USERS\MUZDIMA\DOCUMENTS\VISUAL STUDIO 2017\PROJECTS\EXPECTATIONMAXIMIZATION\EM\RELEASE\MAIN.OBJ
C:\USERS\MUZDIMA\DOCUMENTS\VISUAL STUDIO 2017\PROJECTS\EXPECTATIONMAXIMIZATION\EM\RELEASE\CLASTERIZERENBERNOULLI.OBJ
^C:\USERS\MUZDIMA\DOCUMENTS\VISUAL STUDIO 2017\PROJECTS\EXPECTATIONMAXIMIZATION\EM\MAIN.CPP|C:\USERS\MUZDIMA\DOCUMENTS\VISUAL STUDIO 2017\PROJECTS\EXPECTATIONMAXIMIZATION\EM\READERDUMMY.CPP
C:\USERS\MUZDIMA\DOCUMENTS\VISUAL STUDIO 2017\PROJECTS\EXPECTATIONMAXIMIZATION\EM\RELEASE\VC141.PDB
C:\USERS\MUZDIMA\DOCUMENTS\VISUAL STUDIO 2017\PROJECTS\EXPECTATIONMAXIMIZATION\EM\RELEASE\MAIN.OBJ
C:\USERS\MUZDIMA\DOCUMENTS\VISUAL STUDIO 2017\PROJECTS\EXPECTATIONMAXIMIZATION\EM\RELEASE\READERDUMMY.OBJ
^C:\USERS\MUZDIMA\DOCUMENTS\VISUAL STUDIO 2017\PROJECTS\EXPECTATIONMAXIMIZATION\EM\READERDUMMY.CPP
C:\USERS\MUZDIMA\DOCUMENTS\VISUAL STUDIO 2017\PROJECTS\EXPECTATIONMAXIMIZATION\EM\RELEASE\VC141.PDB
C:\USERS\MUZDIMA\DOCUMENTS\VISUAL STUDIO 2017\PROJECTS\EXPECTATIONMAXIMIZATION\EM\RELEASE\READERDUMMY.OBJ
^C:\USERS\MUZDIMA\DOCUMENTS\VISUAL STUDIO 2017\PROJECTS\EXPECTATIONMAXIMIZATION\EM\MAIN.CPP|C:\USERS\MUZDIMA\DOCUMENTS\VISUAL STUDIO 2017\PROJECTS\EXPECTATIONMAXIMIZATION\EM\READERMNIST.CPP
C:\USERS\MUZDIMA\DOCUMENTS\VISUAL STUDIO 2017\PROJECTS\EXPECTATIONMAXIMIZATION\EM\RELEASE\VC141.PDB
C:\USERS\MUZDIMA\DOCUMENTS\VISUAL STUDIO 2017\PROJECTS\EXPECTATIONMAXIMIZATION\EM\RELEASE\MAIN.OBJ
^C:\USERS\MUZDIMA\DOCUMENTS\VISUAL STUDIO 2017\PROJECTS\EXPECTATIONMAXIMIZATION\EM\CLASTERIZERENBERNOULLI.CPP|C:\USERS\MUZDIMA\DOCUMENTS\VISUAL STUDIO 2017\PROJECTS\EXPECTATIONMAXIMIZATION\EM\MAIN.CPP|C:\USERS\MUZDIMA\DOCUMENTS\VISUAL STUDIO 2017\PROJECTS\EXPECTATIONMAXIMIZATION\EM\READERMNIST.CPP
C:\USERS\MUZDIMA\DOCUMENTS\VISUAL STUDIO 2017\PROJECTS\EXPECTATIONMAXIMIZATION\EM\RELEASE\VC141.PDB
C:\USERS\MUZDIMA\DOCUMENTS\VISUAL STUDIO 2017\PROJECTS\EXPECTATIONMAXIMIZATION\EM\RELEASE\MAIN.OBJ
C:\USERS\MUZDIMA\DOCUMENTS\VISUAL STUDIO 2017\PROJECTS\EXPECTATIONMAXIMIZATION\EM\RELEASE\READERMNIST.OBJ
C:\USERS\MUZDIMA\DOCUMENTS\VISUAL STUDIO 2017\PROJECTS\EXPECTATIONMAXIMIZATION\EM\RELEASE\CLASTERIZERENBERNOULLI.OBJ
^C:\USERS\MUZDIMA\DOCUMENTS\VISUAL STUDIO 2017\PROJECTS\EXPECTATIONMAXIMIZATION\EM\READERMNIST.CPP
C:\USERS\MUZDIMA\DOCUMENTS\VISUAL STUDIO 2017\PROJECTS\EXPECTATIONMAXIMIZATION\EM\RELEASE\VC141.PDB
^C:\USERS\MUZDIMA\DOCUMENTS\VISUAL STUDIO 2017\PROJECTS\EXPECTATIONMAXIMIZATION\EM\CLASTERIZERENBERNOULLI.CPP|C:\USERS\MUZDIMA\DOCUMENTS\VISUAL STUDIO 2017\PROJECTS\EXPECTATIONMAXIMIZATION\EM\MAIN.CPP
C:\USERS\MUZDIMA\DOCUMENTS\VISUAL STUDIO 2017\PROJECTS\EXPECTATIONMAXIMIZATION\EM\RELEASE\VC141.PDB
C:\USERS\MUZDIMA\DOCUMENTS\VISUAL STUDIO 2017\PROJECTS\EXPECTATIONMAXIMIZATION\EM\RELEASE\CLASTERIZERENBERNOULLI.OBJ
^C:\USERS\MUZDIMA\DOCUMENTS\VISUAL STUDIO 2017\PROJECTS\EXPECTATIONMAXIMIZATION\EM\CLASTERIZERENBERNOULLI.CPP|C:\USERS\MUZDIMA\DOCUMENTS\VISUAL STUDIO 2017\PROJECTS\EXPECTATIONMAXIMIZATION\EM\CLASTERIZERKMEANS.CPP|C:\USERS\MUZDIMA\DOCUMENTS\VISUAL STUDIO 2017\PROJECTS\EXPECTATIONMAXIMIZATION\EM\MAIN.CPP
C:\USERS\MUZDIMA\DOCUMENTS\VISUAL STUDIO 2017\PROJECTS\EXPECTATIONMAXIMIZATION\EM\RELEASE\VC141.PDB
C:\USERS\MUZDIMA\DOCUMENTS\VISUAL STUDIO 2017\PROJECTS\EXPECTATIONMAXIMIZATION\EM\RELEASE\CLASTERIZERKMEANS.OBJ
C:\USERS\MUZDIMA\DOCUMENTS\VISUAL STUDIO 2017\PROJECTS\EXPECTATIONMAXIMIZATION\EM\RELEASE\CLASTERIZERENBERNOULLI.OBJ
^C:\USERS\MUZDIMA\DOCUMENTS\VISUAL STUDIO 2017\PROJECTS\EXPECTATIONMAXIMIZATION\EM\CLASTERIZEREMGAUSSIAN.CPP|C:\USERS\MUZDIMA\DOCUMENTS\VISUAL STUDIO 2017\PROJECTS\EXPECTATIONMAXIMIZATION\EM\CLASTERIZERENBERNOULLI.CPP|C:\USERS\MUZDIMA\DOCUMENTS\VISUAL STUDIO 2017\PROJECTS\EXPECTATIONMAXIMIZATION\EM\CLASTERIZERKMEANS.CPP|C:\USERS\MUZDIMA\DOCUMENTS\VISUAL STUDIO 2017\PROJECTS\EXPECTATIONMAXIMIZATION\EM\MAIN.CPP
C:\USERS\MUZDIMA\DOCUMENTS\VISUAL STUDIO 2017\PROJECTS\EXPECTATIONMAXIMIZATION\EM\RELEASE\VC141.PDB
C:\USERS\MUZDIMA\DOCUMENTS\VISUAL STUDIO 2017\PROJECTS\EXPECTATIONMAXIMIZATION\EM\RELEASE\MAIN.OBJ
C:\USERS\MUZDIMA\DOCUMENTS\VISUAL STUDIO 2017\PROJECTS\EXPECTATIONMAXIMIZATION\EM\RELEASE\CLASTERIZERKMEANS.OBJ
C:\USERS\MUZDIMA\DOCUMENTS\VISUAL STUDIO 2017\PROJECTS\EXPECTATIONMAXIMIZATION\EM\RELEASE\CLASTERIZERENBERNOULLI.OBJ
C:\USERS\MUZDIMA\DOCUMENTS\VISUAL STUDIO 2017\PROJECTS\EXPECTATIONMAXIMIZATION\EM\RELEASE\CLASTERIZEREMGAUSSIAN.OBJ
^C:\USERS\MUZDIMA\DOCUMENTS\VISUAL STUDIO 2017\PROJECTS\EXPECTATIONMAXIMIZATION\EM\CLASTERIZERKMEANS.CPP
C:\USERS\MUZDIMA\DOCUMENTS\VISUAL STUDIO 2017\PROJECTS\EXPECTATIONMAXIMIZATION\EM\RELEASE\VC141.PDB
^C:\USERS\MUZDIMA\DOCUMENTS\VISUAL STUDIO 2017\PROJECTS\EXPECTATIONMAXIMIZATION\EM\CLASTERIZEREMGAUSSIAN.CPP|C:\USERS\MUZDIMA\DOCUMENTS\VISUAL STUDIO 2017\PROJECTS\EXPECTATIONMAXIMIZATION\EM\CLASTERIZERENBERNOULLI.CPP|C:\USERS\MUZDIMA\DOCUMENTS\VISUAL STUDIO 2017\PROJECTS\EXPECTATIONMAXIMIZATION\EM\MAIN.CPP|C:\USERS\MUZDIMA\DOCUMENTS\VISUAL STUDIO 2017\PROJECTS\EXPECTATIONMAXIMIZATION\EM\MAPPERSIMPLE.CPP
C:\USERS\MUZDIMA\DOCUMENTS\VISUAL STUDIO 2017\PROJECTS\EXPECTATIONMAXIMIZATION\EM\RELEASE\VC141.PDB
C:\USERS\MUZDIMA\DOCUMENTS\VISUAL STUDIO 2017\PROJECTS\EXPECTATIONMAXIMIZATION\EM\RELEASE\MAIN.OBJ
C:\USERS\MUZDIMA\DOCUMENTS\VISUAL STUDIO 2017\PROJECTS\EXPECTATIONMAXIMIZATION\EM\RELEASE\MAPPERSIMPLE.OBJ
C:\USERS\MUZDIMA\DOCUMENTS\VISUAL STUDIO 2017\PROJECTS\EXPECTATIONMAXIMIZATION\EM\RELEASE\CLASTERIZERENBERNOULLI.OBJ
C:\USERS\MUZDIMA\DOCUMENTS\VISUAL STUDIO 2017\PROJECTS\EXPECTATIONMAXIMIZATION\EM\RELEASE\CLASTERIZEREMGAUSSIAN.OBJ
^C:\USERS\MUZDIMA\DOCUMENTS\VISUAL STUDIO 2017\PROJECTS\EXPECTATIONMAXIMIZATION\EM\CLASTERIZERENBERNOULLI.CPP
C:\USERS\MUZDIMA\DOCUMENTS\VISUAL STUDIO 2017\PROJECTS\EXPECTATIONMAXIMIZATION\EM\RELEASE\VC141.PDB
^C:\USERS\MUZDIMA\DOCUMENTS\VISUAL STUDIO 2017\PROJECTS\EXPECTATIONMAXIMIZATION\EM\CLASTERIZEREMGAUSSIAN.CPP|C:\USERS\MUZDIMA\DOCUMENTS\VISUAL STUDIO 2017\PROJECTS\EXPECTATIONMAXIMIZATION\EM\MAIN.CPP|C:\USERS\MUZDIMA\DOCUMENTS\VISUAL STUDIO 2017\PROJECTS\EXPECTATIONMAXIMIZATION\EM\MAPPERSIMPLE.CPP
C:\USERS\MUZDIMA\DOCUMENTS\VISUAL STUDIO 2017\PROJECTS\EXPECTATIONMAXIMIZATION\EM\RELEASE\VC141.PDB
C:\USERS\MUZDIMA\DOCUMENTS\VISUAL STUDIO 2017\PROJECTS\EXPECTATIONMAXIMIZATION\EM\RELEASE\MAIN.OBJ
C:\USERS\MUZDIMA\DOCUMENTS\VISUAL STUDIO 2017\PROJECTS\EXPECTATIONMAXIMIZATION\EM\RELEASE\MAPPERSIMPLE.OBJ
C:\USERS\MUZDIMA\DOCUMENTS\VISUAL STUDIO 2017\PROJECTS\EXPECTATIONMAXIMIZATION\EM\RELEASE\CLASTERIZEREMGAUSSIAN.OBJ
^C:\USERS\MUZDIMA\DOCUMENTS\VISUAL STUDIO 2017\PROJECTS\EXPECTATIONMAXIMIZATION\EM\MAPPERSIMPLE.CPP
C:\USERS\MUZDIMA\DOCUMENTS\VISUAL STUDIO 2017\PROJECTS\EXPECTATIONMAXIMIZATION\EM\RELEASE\VC141.PDB
^C:\USERS\MUZDIMA\DOCUMENTS\VISUAL STUDIO 2017\PROJECTS\EXPECTATIONMAXIMIZATION\EM\CLASTERIZEREMGAUSSIAN.CPP|C:\USERS\MUZDIMA\DOCUMENTS\VISUAL STUDIO 2017\PROJECTS\EXPECTATIONMAXIMIZATION\EM\MAIN.CPP
C:\USERS\MUZDIMA\DOCUMENTS\VISUAL STUDIO 2017\PROJECTS\EXPECTATIONMAXIMIZATION\EM\RELEASE\VC141.PDB
C:\USERS\MUZDIMA\DOCUMENTS\VISUAL STUDIO 2017\PROJECTS\EXPECTATIONMAXIMIZATION\EM\RELEASE\MAIN.OBJ
C:\USERS\MUZDIMA\DOCUMENTS\VISUAL STUDIO 2017\PROJECTS\EXPECTATIONMAXIMIZATION\EM\RELEASE\CLASTERIZEREMGAUSSIAN.OBJ
^C:\USERS\MUZDIMA\DOCUMENTS\VISUAL STUDIO 2017\PROJECTS\EXPECTATIONMAXIMIZATION\EM\CLASTERIZEREMGAUSSIAN.CPP
C:\USERS\MUZDIMA\DOCUMENTS\VISUAL STUDIO 2017\PROJECTS\EXPECTATIONMAXIMIZATION\EM\RELEASE\VC141.PDB
^C:\USERS\MUZDIMA\DOCUMENTS\VISUAL STUDIO 2017\PROJECTS\EXPECTATIONMAXIMIZATION\EM\MAIN.CPP
C:\USERS\MUZDIMA\DOCUMENTS\VISUAL STUDIO 2017\PROJECTS\EXPECTATIONMAXIMIZATION\EM\RELEASE\VC141.PDB
C:\USERS\MUZDIMA\DOCUMENTS\VISUAL STUDIO 2017\PROJECTS\EXPECTATIONMAXIMIZATION\EM\RELEASE\MAIN.OBJ
