^C:\Users\MuzDima\Documents\Visual Studio 2017\Projects\ExpectationMaximization\EM\EM.vcxproj
C:\Users\MuzDima\Documents\Visual Studio 2017\Projects\ExpectationMaximization\Release\EM.ipdb
C:\Users\MuzDima\Documents\Visual Studio 2017\Projects\ExpectationMaximization\Release\EM.iobj
^C:\Users\MuzDima\Documents\Visual Studio 2017\Projects\ExpectationMaximization\EM\EM.vcxproj
C:\Users\MuzDima\Documents\Visual Studio 2017\Projects\ExpectationMaximization\Release\EM.ipdb
C:\Users\MuzDima\Documents\Visual Studio 2017\Projects\ExpectationMaximization\Release\EM.iobj
^C:\Users\MuzDima\Documents\Visual Studio 2017\Projects\ExpectationMaximization\EM\EM.vcxproj
C:\Users\MuzDima\Documents\Visual Studio 2017\Projects\ExpectationMaximization\Release\EM.ipdb
C:\Users\MuzDima\Documents\Visual Studio 2017\Projects\ExpectationMaximization\Release\EM.iobj
^C:\Users\MuzDima\Documents\Visual Studio 2017\Projects\ExpectationMaximization\EM\EM.vcxproj
C:\Users\MuzDima\Documents\Visual Studio 2017\Projects\ExpectationMaximization\Release\EM.ipdb
C:\Users\MuzDima\Documents\Visual Studio 2017\Projects\ExpectationMaximization\Release\EM.iobj
^C:\Users\MuzDima\Documents\Visual Studio 2017\Projects\ExpectationMaximization\EM\EM.vcxproj
C:\Users\MuzDima\Documents\Visual Studio 2017\Projects\ExpectationMaximization\Release\EM.ipdb
C:\Users\MuzDima\Documents\Visual Studio 2017\Projects\ExpectationMaximization\Release\EM.iobj
^C:\Users\MuzDima\Documents\Visual Studio 2017\Projects\ExpectationMaximization\EM\EM.vcxproj
C:\Users\MuzDima\Documents\Visual Studio 2017\Projects\ExpectationMaximization\Release\EM.ipdb
C:\Users\MuzDima\Documents\Visual Studio 2017\Projects\ExpectationMaximization\Release\EM.iobj
^C:\Users\MuzDima\Documents\Visual Studio 2017\Projects\ExpectationMaximization\EM\EM.vcxproj
C:\Users\MuzDima\Documents\Visual Studio 2017\Projects\ExpectationMaximization\Release\EM.ipdb
C:\Users\MuzDima\Documents\Visual Studio 2017\Projects\ExpectationMaximization\Release\EM.iobj
^C:\Users\MuzDima\Documents\Visual Studio 2017\Projects\ExpectationMaximization\EM\EM.vcxproj
C:\Users\MuzDima\Documents\Visual Studio 2017\Projects\ExpectationMaximization\Release\EM.ipdb
C:\Users\MuzDima\Documents\Visual Studio 2017\Projects\ExpectationMaximization\Release\EM.iobj
^C:\Users\MuzDima\Documents\Visual Studio 2017\Projects\ExpectationMaximization\EM\EM.vcxproj
C:\Users\MuzDima\Documents\Visual Studio 2017\Projects\ExpectationMaximization\Release\EM.ipdb
C:\Users\MuzDima\Documents\Visual Studio 2017\Projects\ExpectationMaximization\Release\EM.iobj
^C:\Users\MuzDima\Documents\Visual Studio 2017\Projects\ExpectationMaximization\EM\EM.vcxproj
C:\Users\MuzDima\Documents\Visual Studio 2017\Projects\ExpectationMaximization\Release\EM.ipdb
C:\Users\MuzDima\Documents\Visual Studio 2017\Projects\ExpectationMaximization\Release\EM.iobj
^C:\Users\MuzDima\Documents\Visual Studio 2017\Projects\ExpectationMaximization\EM\EM.vcxproj
C:\Users\MuzDima\Documents\Visual Studio 2017\Projects\ExpectationMaximization\Release\EM.ipdb
C:\Users\MuzDima\Documents\Visual Studio 2017\Projects\ExpectationMaximization\Release\EM.iobj
^C:\Users\MuzDima\Documents\Visual Studio 2017\Projects\ExpectationMaximization\EM\EM.vcxproj
C:\Users\MuzDima\Documents\Visual Studio 2017\Projects\ExpectationMaximization\Release\EM.ipdb
C:\Users\MuzDima\Documents\Visual Studio 2017\Projects\ExpectationMaximization\Release\EM.iobj
^C:\Users\MuzDima\Documents\Visual Studio 2017\Projects\ExpectationMaximization\EM\EM.vcxproj
C:\Users\MuzDima\Documents\Visual Studio 2017\Projects\ExpectationMaximization\Release\EM.ipdb
C:\Users\MuzDima\Documents\Visual Studio 2017\Projects\ExpectationMaximization\Release\EM.iobj
^C:\Users\MuzDima\Documents\Visual Studio 2017\Projects\ExpectationMaximization\EM\EM.vcxproj
C:\Users\MuzDima\Documents\Visual Studio 2017\Projects\ExpectationMaximization\Release\EM.ipdb
C:\Users\MuzDima\Documents\Visual Studio 2017\Projects\ExpectationMaximization\Release\EM.iobj
^C:\Users\MuzDima\Documents\Visual Studio 2017\Projects\ExpectationMaximization\EM\EM.vcxproj
C:\Users\MuzDima\Documents\Visual Studio 2017\Projects\ExpectationMaximization\Release\EM.ipdb
C:\Users\MuzDima\Documents\Visual Studio 2017\Projects\ExpectationMaximization\Release\EM.iobj
^C:\Users\MuzDima\Documents\Visual Studio 2017\Projects\ExpectationMaximization\EM\EM.vcxproj
C:\Users\MuzDima\Documents\Visual Studio 2017\Projects\ExpectationMaximization\Release\EM.ipdb
C:\Users\MuzDima\Documents\Visual Studio 2017\Projects\ExpectationMaximization\Release\EM.iobj
^C:\Users\MuzDima\Documents\Visual Studio 2017\Projects\ExpectationMaximization\EM\EM.vcxproj
C:\Users\MuzDima\Documents\Visual Studio 2017\Projects\ExpectationMaximization\Release\EM.ipdb
C:\Users\MuzDima\Documents\Visual Studio 2017\Projects\ExpectationMaximization\Release\EM.iobj
^C:\Users\MuzDima\Documents\Visual Studio 2017\Projects\ExpectationMaximization\EM\EM.vcxproj
C:\Users\MuzDima\Documents\Visual Studio 2017\Projects\ExpectationMaximization\Release\EM.ipdb
C:\Users\MuzDima\Documents\Visual Studio 2017\Projects\ExpectationMaximization\Release\EM.iobj
^C:\Users\MuzDima\Documents\Visual Studio 2017\Projects\ExpectationMaximization\EM\EM.vcxproj
C:\Users\MuzDima\Documents\Visual Studio 2017\Projects\ExpectationMaximization\Release\EM.ipdb
C:\Users\MuzDima\Documents\Visual Studio 2017\Projects\ExpectationMaximization\Release\EM.iobj
^C:\Users\MuzDima\Documents\Visual Studio 2017\Projects\ExpectationMaximization\EM\EM.vcxproj
C:\Users\MuzDima\Documents\Visual Studio 2017\Projects\ExpectationMaximization\Release\EM.ipdb
C:\Users\MuzDima\Documents\Visual Studio 2017\Projects\ExpectationMaximization\Release\EM.iobj
^C:\Users\MuzDima\Documents\Visual Studio 2017\Projects\ExpectationMaximization\EM\EM.vcxproj
C:\Users\MuzDima\Documents\Visual Studio 2017\Projects\ExpectationMaximization\Release\EM.ipdb
C:\Users\MuzDima\Documents\Visual Studio 2017\Projects\ExpectationMaximization\Release\EM.iobj
^C:\Users\MuzDima\Documents\Visual Studio 2017\Projects\ExpectationMaximization\EM\EM.vcxproj
C:\Users\MuzDima\Documents\Visual Studio 2017\Projects\ExpectationMaximization\Release\EM.ipdb
C:\Users\MuzDima\Documents\Visual Studio 2017\Projects\ExpectationMaximization\Release\EM.iobj
^C:\Users\MuzDima\Documents\Visual Studio 2017\Projects\ExpectationMaximization\EM\EM.vcxproj
C:\Users\MuzDima\Documents\Visual Studio 2017\Projects\ExpectationMaximization\Release\EM.ipdb
C:\Users\MuzDima\Documents\Visual Studio 2017\Projects\ExpectationMaximization\Release\EM.iobj
^C:\Users\MuzDima\Documents\Visual Studio 2017\Projects\ExpectationMaximization\EM\EM.vcxproj
C:\Users\MuzDima\Documents\Visual Studio 2017\Projects\ExpectationMaximization\Release\EM.ipdb
C:\Users\MuzDima\Documents\Visual Studio 2017\Projects\ExpectationMaximization\Release\EM.iobj
^C:\Users\MuzDima\Documents\Visual Studio 2017\Projects\ExpectationMaximization\EM\EM.vcxproj
C:\Users\MuzDima\Documents\Visual Studio 2017\Projects\ExpectationMaximization\Release\EM.ipdb
C:\Users\MuzDima\Documents\Visual Studio 2017\Projects\ExpectationMaximization\Release\EM.iobj
^C:\Users\MuzDima\Documents\Visual Studio 2017\Projects\ExpectationMaximization\EM\EM.vcxproj
C:\Users\MuzDima\Documents\Visual Studio 2017\Projects\ExpectationMaximization\Release\EM.ipdb
C:\Users\MuzDima\Documents\Visual Studio 2017\Projects\ExpectationMaximization\Release\EM.iobj
^C:\Users\MuzDima\Documents\Visual Studio 2017\Projects\ExpectationMaximization\EM\EM.vcxproj
C:\Users\MuzDima\Documents\Visual Studio 2017\Projects\ExpectationMaximization\Release\EM.ipdb
C:\Users\MuzDima\Documents\Visual Studio 2017\Projects\ExpectationMaximization\Release\EM.iobj
^C:\Users\MuzDima\Documents\Visual Studio 2017\Projects\ExpectationMaximization\EM\EM.vcxproj
C:\Users\MuzDima\Documents\Visual Studio 2017\Projects\ExpectationMaximization\Release\EM.ipdb
C:\Users\MuzDima\Documents\Visual Studio 2017\Projects\ExpectationMaximization\Release\EM.iobj
^C:\Users\MuzDima\Documents\Visual Studio 2017\Projects\ExpectationMaximization\EM\EM.vcxproj
C:\Users\MuzDima\Documents\Visual Studio 2017\Projects\ExpectationMaximization\Release\EM.ipdb
C:\Users\MuzDima\Documents\Visual Studio 2017\Projects\ExpectationMaximization\Release\EM.iobj
^C:\Users\MuzDima\Documents\Visual Studio 2017\Projects\ExpectationMaximization\EM\EM.vcxproj
C:\Users\MuzDima\Documents\Visual Studio 2017\Projects\ExpectationMaximization\Release\EM.ipdb
C:\Users\MuzDima\Documents\Visual Studio 2017\Projects\ExpectationMaximization\Release\EM.iobj
^C:\Users\MuzDima\Documents\Visual Studio 2017\Projects\ExpectationMaximization\EM\EM.vcxproj
C:\Users\MuzDima\Documents\Visual Studio 2017\Projects\ExpectationMaximization\Release\EM.ipdb
C:\Users\MuzDima\Documents\Visual Studio 2017\Projects\ExpectationMaximization\Release\EM.iobj
^C:\Users\MuzDima\Documents\Visual Studio 2017\Projects\ExpectationMaximization\EM\EM.vcxproj
C:\Users\MuzDima\Documents\Visual Studio 2017\Projects\ExpectationMaximization\Release\EM.ipdb
C:\Users\MuzDima\Documents\Visual Studio 2017\Projects\ExpectationMaximization\Release\EM.iobj
^C:\Users\MuzDima\Documents\Visual Studio 2017\Projects\ExpectationMaximization\EM\EM.vcxproj
C:\Users\MuzDima\Documents\Visual Studio 2017\Projects\ExpectationMaximization\Release\EM.ipdb
C:\Users\MuzDima\Documents\Visual Studio 2017\Projects\ExpectationMaximization\Release\EM.iobj
^C:\Users\MuzDima\Documents\Visual Studio 2017\Projects\ExpectationMaximization\EM\EM.vcxproj
C:\Users\MuzDima\Documents\Visual Studio 2017\Projects\ExpectationMaximization\Release\EM.ipdb
C:\Users\MuzDima\Documents\Visual Studio 2017\Projects\ExpectationMaximization\Release\EM.iobj
^C:\Users\MuzDima\Documents\Visual Studio 2017\Projects\ExpectationMaximization\EM\EM.vcxproj
C:\Users\MuzDima\Documents\Visual Studio 2017\Projects\ExpectationMaximization\Release\EM.ipdb
C:\Users\MuzDima\Documents\Visual Studio 2017\Projects\ExpectationMaximization\Release\EM.iobj
^C:\Users\MuzDima\Documents\Visual Studio 2017\Projects\ExpectationMaximization\EM\EM.vcxproj
C:\Users\MuzDima\Documents\Visual Studio 2017\Projects\ExpectationMaximization\Release\EM.ipdb
C:\Users\MuzDima\Documents\Visual Studio 2017\Projects\ExpectationMaximization\Release\EM.iobj
^C:\Users\MuzDima\Documents\Visual Studio 2017\Projects\ExpectationMaximization\EM\EM.vcxproj
C:\Users\MuzDima\Documents\Visual Studio 2017\Projects\ExpectationMaximization\Release\EM.ipdb
C:\Users\MuzDima\Documents\Visual Studio 2017\Projects\ExpectationMaximization\Release\EM.iobj
^C:\Users\MuzDima\Documents\Visual Studio 2017\Projects\ExpectationMaximization\EM\EM.vcxproj
C:\Users\MuzDima\Documents\Visual Studio 2017\Projects\ExpectationMaximization\Release\EM.ipdb
C:\Users\MuzDima\Documents\Visual Studio 2017\Projects\ExpectationMaximization\Release\EM.iobj
^C:\Users\MuzDima\Documents\Visual Studio 2017\Projects\ExpectationMaximization\EM\EM.vcxproj
C:\Users\MuzDima\Documents\Visual Studio 2017\Projects\ExpectationMaximization\Release\EM.ipdb
C:\Users\MuzDima\Documents\Visual Studio 2017\Projects\ExpectationMaximization\Release\EM.iobj
^C:\Users\MuzDima\Documents\Visual Studio 2017\Projects\ExpectationMaximization\EM\EM.vcxproj
C:\Users\MuzDima\Documents\Visual Studio 2017\Projects\ExpectationMaximization\Release\EM.ipdb
C:\Users\MuzDima\Documents\Visual Studio 2017\Projects\ExpectationMaximization\Release\EM.iobj
^C:\Users\MuzDima\Documents\Visual Studio 2017\Projects\ExpectationMaximization\EM\EM.vcxproj
C:\Users\MuzDima\Documents\Visual Studio 2017\Projects\ExpectationMaximization\Release\EM.ipdb
C:\Users\MuzDima\Documents\Visual Studio 2017\Projects\ExpectationMaximization\Release\EM.iobj
^C:\Users\MuzDima\Documents\Visual Studio 2017\Projects\ExpectationMaximization\EM\EM.vcxproj
C:\Users\MuzDima\Documents\Visual Studio 2017\Projects\ExpectationMaximization\Release\EM.ipdb
C:\Users\MuzDima\Documents\Visual Studio 2017\Projects\ExpectationMaximization\Release\EM.iobj
^C:\Users\MuzDima\Documents\Visual Studio 2017\Projects\ExpectationMaximization\EM\EM.vcxproj
C:\Users\MuzDima\Documents\Visual Studio 2017\Projects\ExpectationMaximization\Release\EM.ipdb
C:\Users\MuzDima\Documents\Visual Studio 2017\Projects\ExpectationMaximization\Release\EM.iobj
^C:\Users\MuzDima\Documents\Visual Studio 2017\Projects\ExpectationMaximization\EM\EM.vcxproj
C:\Users\MuzDima\Documents\Visual Studio 2017\Projects\ExpectationMaximization\Release\EM.ipdb
C:\Users\MuzDima\Documents\Visual Studio 2017\Projects\ExpectationMaximization\Release\EM.iobj
^C:\Users\MuzDima\Documents\Visual Studio 2017\Projects\ExpectationMaximization\EM\EM.vcxproj
C:\Users\MuzDima\Documents\Visual Studio 2017\Projects\ExpectationMaximization\Release\EM.ipdb
C:\Users\MuzDima\Documents\Visual Studio 2017\Projects\ExpectationMaximization\Release\EM.iobj
^C:\Users\MuzDima\Documents\Visual Studio 2017\Projects\ExpectationMaximization\EM\EM.vcxproj
C:\Users\MuzDima\Documents\Visual Studio 2017\Projects\ExpectationMaximization\Release\EM.ipdb
C:\Users\MuzDima\Documents\Visual Studio 2017\Projects\ExpectationMaximization\Release\EM.iobj
^C:\Users\MuzDima\Documents\Visual Studio 2017\Projects\ExpectationMaximization\EM\EM.vcxproj
C:\Users\MuzDima\Documents\Visual Studio 2017\Projects\ExpectationMaximization\Release\EM.ipdb
C:\Users\MuzDima\Documents\Visual Studio 2017\Projects\ExpectationMaximization\Release\EM.iobj
^C:\Users\MuzDima\Documents\Visual Studio 2017\Projects\ExpectationMaximization\EM\EM.vcxproj
C:\Users\MuzDima\Documents\Visual Studio 2017\Projects\ExpectationMaximization\Release\EM.ipdb
C:\Users\MuzDima\Documents\Visual Studio 2017\Projects\ExpectationMaximization\Release\EM.iobj
^C:\Users\MuzDima\Documents\Visual Studio 2017\Projects\ExpectationMaximization\EM\EM.vcxproj
C:\Users\MuzDima\Documents\Visual Studio 2017\Projects\ExpectationMaximization\Release\EM.ipdb
C:\Users\MuzDima\Documents\Visual Studio 2017\Projects\ExpectationMaximization\Release\EM.iobj
^C:\Users\MuzDima\Documents\Visual Studio 2017\Projects\ExpectationMaximization\EM\EM.vcxproj
C:\Users\MuzDima\Documents\Visual Studio 2017\Projects\ExpectationMaximization\Release\EM.ipdb
C:\Users\MuzDima\Documents\Visual Studio 2017\Projects\ExpectationMaximization\Release\EM.iobj
^C:\Users\MuzDima\Documents\Visual Studio 2017\Projects\ExpectationMaximization\EM\EM.vcxproj
C:\Users\MuzDima\Documents\Visual Studio 2017\Projects\ExpectationMaximization\Release\EM.ipdb
C:\Users\MuzDima\Documents\Visual Studio 2017\Projects\ExpectationMaximization\Release\EM.iobj
^C:\Users\MuzDima\Documents\Visual Studio 2017\Projects\ExpectationMaximization\EM\EM.vcxproj
C:\Users\MuzDima\Documents\Visual Studio 2017\Projects\ExpectationMaximization\Release\EM.ipdb
C:\Users\MuzDima\Documents\Visual Studio 2017\Projects\ExpectationMaximization\Release\EM.iobj
^C:\Users\MuzDima\Documents\Visual Studio 2017\Projects\ExpectationMaximization\EM\EM.vcxproj
C:\Users\MuzDima\Documents\Visual Studio 2017\Projects\ExpectationMaximization\Release\EM.ipdb
C:\Users\MuzDima\Documents\Visual Studio 2017\Projects\ExpectationMaximization\Release\EM.iobj
^C:\Users\MuzDima\Documents\Visual Studio 2017\Projects\ExpectationMaximization\EM\EM.vcxproj
C:\Users\MuzDima\Documents\Visual Studio 2017\Projects\ExpectationMaximization\Release\EM.ipdb
C:\Users\MuzDima\Documents\Visual Studio 2017\Projects\ExpectationMaximization\Release\EM.iobj
^C:\Users\MuzDima\Documents\Visual Studio 2017\Projects\ExpectationMaximization\EM\EM.vcxproj
C:\Users\MuzDima\Documents\Visual Studio 2017\Projects\ExpectationMaximization\Release\EM.ipdb
C:\Users\MuzDima\Documents\Visual Studio 2017\Projects\ExpectationMaximization\Release\EM.iobj
^C:\Users\MuzDima\Documents\Visual Studio 2017\Projects\ExpectationMaximization\EM\EM.vcxproj
C:\Users\MuzDima\Documents\Visual Studio 2017\Projects\ExpectationMaximization\Release\EM.ipdb
C:\Users\MuzDima\Documents\Visual Studio 2017\Projects\ExpectationMaximization\Release\EM.iobj
^C:\Users\MuzDima\Documents\Visual Studio 2017\Projects\ExpectationMaximization\EM\EM.vcxproj
C:\Users\MuzDima\Documents\Visual Studio 2017\Projects\ExpectationMaximization\Release\EM.ipdb
C:\Users\MuzDima\Documents\Visual Studio 2017\Projects\ExpectationMaximization\Release\EM.iobj
^C:\Users\MuzDima\Documents\Visual Studio 2017\Projects\ExpectationMaximization\EM\EM.vcxproj
C:\Users\MuzDima\Documents\Visual Studio 2017\Projects\ExpectationMaximization\Release\EM.ipdb
C:\Users\MuzDima\Documents\Visual Studio 2017\Projects\ExpectationMaximization\Release\EM.iobj
^C:\Users\MuzDima\Documents\Visual Studio 2017\Projects\ExpectationMaximization\EM\EM.vcxproj
C:\Users\MuzDima\Documents\Visual Studio 2017\Projects\ExpectationMaximization\Release\EM.ipdb
C:\Users\MuzDima\Documents\Visual Studio 2017\Projects\ExpectationMaximization\Release\EM.iobj
^C:\Users\MuzDima\Documents\Visual Studio 2017\Projects\ExpectationMaximization\EM\EM.vcxproj
C:\Users\MuzDima\Documents\Visual Studio 2017\Projects\ExpectationMaximization\Release\EM.ipdb
C:\Users\MuzDima\Documents\Visual Studio 2017\Projects\ExpectationMaximization\Release\EM.iobj
^C:\Users\MuzDima\Documents\Visual Studio 2017\Projects\ExpectationMaximization\EM\EM.vcxproj
C:\Users\MuzDima\Documents\Visual Studio 2017\Projects\ExpectationMaximization\Release\EM.ipdb
C:\Users\MuzDima\Documents\Visual Studio 2017\Projects\ExpectationMaximization\Release\EM.iobj
^C:\Users\MuzDima\Documents\Visual Studio 2017\Projects\ExpectationMaximization\EM\EM.vcxproj
C:\Users\MuzDima\Documents\Visual Studio 2017\Projects\ExpectationMaximization\Release\EM.ipdb
C:\Users\MuzDima\Documents\Visual Studio 2017\Projects\ExpectationMaximization\Release\EM.iobj
^C:\Users\MuzDima\Documents\Visual Studio 2017\Projects\ExpectationMaximization\EM\EM.vcxproj
C:\Users\MuzDima\Documents\Visual Studio 2017\Projects\ExpectationMaximization\Release\EM.ipdb
C:\Users\MuzDima\Documents\Visual Studio 2017\Projects\ExpectationMaximization\Release\EM.iobj
^C:\Users\MuzDima\Documents\Visual Studio 2017\Projects\ExpectationMaximization\EM\EM.vcxproj
C:\Users\MuzDima\Documents\Visual Studio 2017\Projects\ExpectationMaximization\Release\EM.ipdb
C:\Users\MuzDima\Documents\Visual Studio 2017\Projects\ExpectationMaximization\Release\EM.iobj
^C:\Users\MuzDima\Documents\Visual Studio 2017\Projects\ExpectationMaximization\EM\EM.vcxproj
C:\Users\MuzDima\Documents\Visual Studio 2017\Projects\ExpectationMaximization\Release\EM.ipdb
C:\Users\MuzDima\Documents\Visual Studio 2017\Projects\ExpectationMaximization\Release\EM.iobj
