^C:\USERS\MUZDIMA\DOCUMENTS\VISUAL STUDIO 2017\PROJECTS\EM\EM\RELEASE\CLASTERIZEREM.OBJ|C:\USERS\MUZDIMA\DOCUMENTS\VISUAL STUDIO 2017\PROJECTS\EM\EM\RELEASE\CLASTERIZERKMEANS.OBJ|C:\USERS\MUZDIMA\DOCUMENTS\VISUAL STUDIO 2017\PROJECTS\EM\EM\RELEASE\EXTRA.OBJ|C:\USERS\MUZDIMA\DOCUMENTS\VISUAL STUDIO 2017\PROJECTS\EM\EM\RELEASE\MAIN.OBJ|C:\USERS\MUZDIMA\DOCUMENTS\VISUAL STUDIO 2017\PROJECTS\EM\EM\RELEASE\MAPPERSIMPLE.OBJ|C:\USERS\MUZDIMA\DOCUMENTS\VISUAL STUDIO 2017\PROJECTS\EM\EM\RELEASE\READERMNIST.OBJ
/OUT:"C:\USERS\MUZDIMA\DOCUMENTS\VISUAL STUDIO 2017\PROJECTS\EM\RELEASE\EM.EXE" /INCREMENTAL:NO /NOLOGO KERNEL32.LIB USER32.LIB GDI32.LIB WINSPOOL.LIB COMDLG32.LIB ADVAPI32.LIB SHELL32.LIB OLE32.LIB OLEAUT32.LIB UUID.LIB ODBC32.LIB ODBCCP32.LIB /MANIFEST /MANIFESTUAC:"level='asInvoker' uiAccess='false'" /manifest:embed /DEBUG:FULL /PDB:"C:\USERS\MUZDIMA\DOCUMENTS\VISUAL STUDIO 2017\PROJECTS\EM\RELEASE\EM.PDB" /SUBSYSTEM:CONSOLE /OPT:REF /OPT:ICF /LTCG:incremental /TLBID:1 /DYNAMICBASE /NXCOMPAT /IMPLIB:"C:\USERS\MUZDIMA\DOCUMENTS\VISUAL STUDIO 2017\PROJECTS\EM\RELEASE\EM.LIB" /MACHINE:X86 /SAFESEH RELEASE\CLASTERIZEREM.OBJRELEASE\CLASTERIZERKMEANS.OBJRELEASE\EXTRA.OBJRELEASE\MAIN.OBJRELEASE\MAPPERSIMPLE.OBJRELEASE\READERMNIST.OBJ
^C:\USERS\MUZDIMA\DOCUMENTS\VISUAL STUDIO 2017\PROJECTS\EXPECTATIONMAXIMIZATION\EM\RELEASE\CLASTERIZEREMGAUSSIAN.OBJ|C:\USERS\MUZDIMA\DOCUMENTS\VISUAL STUDIO 2017\PROJECTS\EXPECTATIONMAXIMIZATION\EM\RELEASE\CLASTERIZERENBERNOULLI.OBJ|C:\USERS\MUZDIMA\DOCUMENTS\VISUAL STUDIO 2017\PROJECTS\EXPECTATIONMAXIMIZATION\EM\RELEASE\CLASTERIZERKMEANS.OBJ|C:\USERS\MUZDIMA\DOCUMENTS\VISUAL STUDIO 2017\PROJECTS\EXPECTATIONMAXIMIZATION\EM\RELEASE\EXTRA.OBJ|C:\USERS\MUZDIMA\DOCUMENTS\VISUAL STUDIO 2017\PROJECTS\EXPECTATIONMAXIMIZATION\EM\RELEASE\MAIN.OBJ|C:\USERS\MUZDIMA\DOCUMENTS\VISUAL STUDIO 2017\PROJECTS\EXPECTATIONMAXIMIZATION\EM\RELEASE\MAPPERSIMPLE.OBJ|C:\USERS\MUZDIMA\DOCUMENTS\VISUAL STUDIO 2017\PROJECTS\EXPECTATIONMAXIMIZATION\EM\RELEASE\READERBINARY.OBJ|C:\USERS\MUZDIMA\DOCUMENTS\VISUAL STUDIO 2017\PROJECTS\EXPECTATIONMAXIMIZATION\EM\RELEASE\READERDUMMY.OBJ|C:\USERS\MUZDIMA\DOCUMENTS\VISUAL STUDIO 2017\PROJECTS\EXPECTATIONMAXIMIZATION\EM\RELEASE\READERMNIST.OBJ
/OUT:"C:\USERS\MUZDIMA\DOCUMENTS\VISUAL STUDIO 2017\PROJECTS\EXPECTATIONMAXIMIZATION\RELEASE\EM.EXE" /INCREMENTAL:NO /NOLOGO KERNEL32.LIB USER32.LIB GDI32.LIB WINSPOOL.LIB COMDLG32.LIB ADVAPI32.LIB SHELL32.LIB OLE32.LIB OLEAUT32.LIB UUID.LIB ODBC32.LIB ODBCCP32.LIB /MANIFEST /MANIFESTUAC:"level='asInvoker' uiAccess='false'" /manifest:embed /DEBUG:FULL /PDB:"C:\USERS\MUZDIMA\DOCUMENTS\VISUAL STUDIO 2017\PROJECTS\EXPECTATIONMAXIMIZATION\RELEASE\EM.PDB" /SUBSYSTEM:CONSOLE /OPT:REF /OPT:ICF /LTCG:incremental /TLBID:1 /DYNAMICBASE /NXCOMPAT /IMPLIB:"C:\USERS\MUZDIMA\DOCUMENTS\VISUAL STUDIO 2017\PROJECTS\EXPECTATIONMAXIMIZATION\RELEASE\EM.LIB" /MACHINE:X86 /SAFESEH RELEASE\CLASTERIZEREMGAUSSIAN.OBJRELEASE\CLASTERIZERENBERNOULLI.OBJRELEASE\CLASTERIZERKMEANS.OBJRELEASE\EXTRA.OBJRELEASE\MAIN.OBJRELEASE\MAPPERSIMPLE.OBJRELEASE\READERDUMMY.OBJRELEASE\READERMNIST.OBJRELEASE\READERBINARY.OBJ
